{
  "10000": {
  "coordinates" : "[(1, 150)]",
  "crop" : "[(700, 200, 1200, 600)]"
},
  "10001": {
    "coordinates" :"[(200, 0, 470, 400), (200, 330, 470, 800)]",
    "crop" : "[(150, 300, 410, 800)]"
  }
}